{
  "project_info": {
    "project_number": "886652559818",
    "firebase_url": "https://convergenciashow-62908.firebaseio.com",
    "project_id": "convergenciashow-62908",
    "storage_bucket": "convergenciashow-62908.appspot.com"
  },
  "client": [
    {
      "client_info": {
        "mobilesdk_app_id": "1:886652559818:android:3e37219a3f38ebfc",
        "android_client_info": {
          "package_name": "app.convergenciashow.events"
        }
      },
      "oauth_client": [
        {
          "client_id": "886652559818-pqpi7itcie9eult3572ifbqnfp4edrhr.apps.googleusercontent.com",
          "client_type": 3
        }
      ],
      "api_key": [
        {
          "current_key": "AIzaSyCqZohP1oQMOz-Zb4YjG4HLruQGq4IlL7o"
        }
      ],
      "services": {
        "appinvite_service": {
          "other_platform_oauth_client": [
            {
              "client_id": "886652559818-pqpi7itcie9eult3572ifbqnfp4edrhr.apps.googleusercontent.com",
              "client_type": 3
            }
          ]
        }
      }
    }
  ],
  "configuration_version": "1"
}